Use.DataBase("University");




Adminer.UnsafeMode("");

Select.Rows("*").From("LoopTwo").Limit("1");
Select.Rows("*").From("LoopTwo").Where("LoopTwo*TestID == 3").Limit("1");
Select.Rows("LoopTwo*TestID").From("LoopTwo").Limit("1");

Adminer.StdMode("");

Select.Rows("*").From("LoopTwo").Limit("1");
Select.Rows("*").From("LoopTwo").Where("LoopTwo*TestID == 3").Limit("1");
Select.Rows("LoopTwo*TestID").From("LoopTwo").Limit("1");








Adminer.UnsafeMode("");

Select.Rows("*").From("LoopTwo").Limit("10");
Select.Rows("*").From("LoopTwo").Where("LoopTwo*TestID == 3").Limit("10");
Select.Rows("LoopTwo*TestID").From("LoopTwo").Limit("10");

Adminer.StdMode("");

Select.Rows("*").From("LoopTwo").Limit("10");
Select.Rows("*").From("LoopTwo").Where("LoopTwo*TestID == 3").Limit("10");
Select.Rows("LoopTwo*TestID").From("LoopTwo").Limit("10");






Adminer.UnsafeMode("");

Select.Rows("*").From("LoopTwo").Limit("100");
Select.Rows("*").From("LoopTwo").Where("LoopTwo*TestID == 3").Limit("100");
Select.Rows("LoopTwo*TestID").From("LoopTwo").Limit("100");

Adminer.StdMode("");

Select.Rows("*").From("LoopTwo").Limit("100");
Select.Rows("*").From("LoopTwo").Where("LoopTwo*TestID == 3").Limit("100");
Select.Rows("LoopTwo*TestID").From("LoopTwo").Limit("100");









Adminer.UnsafeMode("");

Select.Rows("*").From("LoopTwo").Limit("250");
Select.Rows("*").From("LoopTwo").Where("LoopTwo*TestID == 3").Limit("250");
Select.Rows("LoopTwo*TestID").From("LoopTwo").Limit("250");

Adminer.StdMode("");

Select.Rows("*").From("LoopTwo").Limit("250");
Select.Rows("*").From("LoopTwo").Where("LoopTwo*TestID == 3").Limit("250");
Select.Rows("LoopTwo*TestID").From("LoopTwo").Limit("250");









Adminer.UnsafeMode("");

Select.Rows("*").From("LoopTwo").Limit("500");
Select.Rows("*").From("LoopTwo").Where("LoopTwo*TestID == 3").Limit("500");
Select.Rows("LoopTwo*TestID").From("LoopTwo").Limit("500");

Adminer.StdMode("");

Select.Rows("*").From("LoopTwo").Limit("500");
Select.Rows("*").From("LoopTwo").Where("LoopTwo*TestID == 3").Limit("500");
Select.Rows("LoopTwo*TestID").From("LoopTwo").Limit("500");







Adminer.UnsafeMode("");

Select.Rows("*").From("LoopTwo").Limit("750");
Select.Rows("*").From("LoopTwo").Where("LoopTwo*TestID == 3").Limit("750");
Select.Rows("LoopTwo*TestID").From("LoopTwo").Limit("750");

Adminer.StdMode("");

Select.Rows("*").From("LoopTwo").Limit("750");
Select.Rows("*").From("LoopTwo").Where("LoopTwo*TestID == 3").Limit("750");
Select.Rows("LoopTwo*TestID").From("LoopTwo").Limit("750");





Adminer.UnsafeMode("");

Select.Rows("*").From("LoopTwo").Limit("1000");
Select.Rows("*").From("LoopTwo").Where("LoopTwo*TestID == 3").Limit("1000");
Select.Rows("LoopTwo*TestID").From("LoopTwo").Limit("1000");

Adminer.StdMode("");

Select.Rows("*").From("LoopTwo").Limit("1000");
Select.Rows("*").From("LoopTwo").Where("LoopTwo*TestID == 3").Limit("1000");
Select.Rows("LoopTwo*TestID").From("LoopTwo").Limit("1000");









Adminer.UnsafeMode("");

Select.Rows("*").From("LoopTwo").Limit("2500");
Select.Rows("*").From("LoopTwo").Where("LoopTwo*TestID == 3").Limit("2500");
Select.Rows("LoopTwo*TestID").From("LoopTwo").Limit("2500");

Adminer.StdMode("");

Select.Rows("*").From("LoopTwo").Limit("2500");
Select.Rows("*").From("LoopTwo").Where("LoopTwo*TestID == 3").Limit("2500");
Select.Rows("LoopTwo*TestID").From("LoopTwo").Limit("2500");








Adminer.UnsafeMode("");

Select.Rows("*").From("LoopTwo").Limit("5000");
Select.Rows("*").From("LoopTwo").Where("LoopTwo*TestID == 3").Limit("5000");
Select.Rows("LoopTwo*TestID").From("LoopTwo").Limit("5000");

Adminer.StdMode("");

Select.Rows("*").From("LoopTwo").Limit("5000");
Select.Rows("*").From("LoopTwo").Where("LoopTwo*TestID == 3").Limit("5000");
Select.Rows("LoopTwo*TestID").From("LoopTwo").Limit("5000");









Adminer.UnsafeMode("");

Select.Rows("*").From("LoopTwo").Limit("7500");
Select.Rows("*").From("LoopTwo").Where("LoopTwo*TestID == 3").Limit("7500");
Select.Rows("LoopTwo*TestID").From("LoopTwo").Limit("7500");

Adminer.StdMode("");

Select.Rows("*").From("LoopTwo").Limit("7500");
Select.Rows("*").From("LoopTwo").Where("LoopTwo*TestID == 3").Limit("7500");
Select.Rows("LoopTwo*TestID").From("LoopTwo").Limit("7500");







Adminer.UnsafeMode("");

Select.Rows("*").From("LoopTwo");
Select.Rows("*").From("LoopTwo").Where("LoopTwo*TestID == 3");
Select.Rows("LoopTwo*TestID").From("LoopTwo");

Adminer.StdMode("");

Select.Rows("*").From("LoopTwo");
Select.Rows("*").From("LoopTwo").Where("LoopTwo*TestID == 3");
Select.Rows("LoopTwo*TestID").From("LoopTwo");



